v 20210731 2
T 300 4200 8 10 0 0 0 0 1
footprint=audioamp_2_click.fp
T 300 4400 8 10 0 0 0 0 1
device=module
T 300 3200 8 10 1 1 0 0 1
value=AudioAmp 11 Click
T 300 3400 8 10 1 1 0 0 1
refdes=MOD?
T 300 4000 8 10 0 0 0 0 1
part=20-28
P 300 2500 0 2500 1 0 1
{
T 205 2545 5 10 1 1 0 6 1
pinnumber=7
T 400 2445 5 10 1 1 0 0 1
pinlabel=3.3V
}
P 900 300 900 0 1 0 1
{
T 745 100 5 10 1 1 0 0 1
pinnumber=8
T 950 355 5 10 1 1 90 0 1
pinlabel=Gnd
}
P 1500 300 1500 0 1 0 1
{
T 1345 100 5 10 1 1 0 0 1
pinnumber=9
T 1550 355 5 10 1 1 90 0 1
pinlabel=Gnd
}
B 300 300 1800 2800 3 10 1 0 -1 -1 0 -1 -1 -1 -1 -1
P 300 2900 0 2900 1 0 1
{
T 205 2945 5 10 1 1 0 6 1
pinnumber=10
T 400 2845 5 10 1 1 0 0 1
pinlabel=5V
}
P 300 900 0 900 1 0 1
{
T 205 945 5 10 1 1 0 6 1
pinnumber=2
T 400 845 5 10 1 1 0 0 1
pinlabel=Enable
}
P 300 1700 0 1700 1 0 1
{
T 205 1745 5 10 1 1 0 6 1
pinnumber=12
T 400 1645 5 10 1 1 0 0 1
pinlabel=SCL
}
P 300 2100 0 2100 1 0 1
{
T 205 2145 5 10 1 1 0 6 1
pinnumber=11
T 400 2045 5 10 1 1 0 0 1
pinlabel=SDA
}
