v 20200319 2
L 1100 300 1150 400 3 0 0 0 -1 -1
L 1150 400 1250 200 3 0 0 0 -1 -1
L 1250 200 1350 400 3 0 0 0 -1 -1
L 1350 400 1450 200 3 0 0 0 -1 -1
L 1450 200 1550 400 3 0 0 0 -1 -1
L 1550 400 1650 200 3 0 0 0 -1 -1
L 1650 200 1700 300 3 0 0 0 -1 -1
P 2000 300 1700 300 1 0 0
{
T 1700 400 5 10 0 0 0 0 1
pinnumber=2
T 1700 600 5 10 0 0 0 0 1
pinlabel=cathode
}
P 800 300 1100 300 1 0 0
{
T 0 400 5 10 0 0 0 0 1
pinnumber=1
T 0 600 5 10 0 0 0 0 1
pinlabel=anode
}
T 0 1500 8 10 0 0 0 0 1
device=resistor
T 1300 500 8 10 1 1 0 0 1
refdes=R?
T 0 1300 8 10 0 0 0 0 1
footprint=1206r.fp
T 0 1095 8 10 0 0 0 0 1
part=12-69
T 1300 0 8 10 1 1 0 0 1
value=1.0k
