v 20200319 2
P 200 400 200 200 1 0 0
{
T 300 450 5 6 0 0 0 0 1
pinnumber=1
}
L 350 200 50 200 3 0 0 0 -1 -1
T 300 300 8 8 0 0 0 0 1
net=ground:1
L 50 200 200 50 3 0 0 0 -1 -1
L 200 50 350 200 3 0 0 0 -1 -1
