v 20210731 2
L 300 0 300 200 3 0 0 0 -1 -1
L 300 0 800 0 3 0 0 0 -1 -1
L 800 0 900 100 3 0 0 0 -1 -1
L 900 100 800 200 3 0 0 0 -1 -1
L 800 200 300 200 3 0 0 0 -1 -1
P 0 100 300 100 1 0 0
{
T 295 245 5 10 0 0 0 0 1
pinnumber=1
T 300 0 5 10 0 0 0 0 1
pinseq=1
T 355 95 5 10 0 0 0 0 1
pinlabel=1
}
T 950 50 8 10 1 1 0 0 1
net=name:1
