v 20200319 2
P 300 2600 0 2600 1 0 1
{
T 205 2645 5 10 1 1 0 6 1
pinnumber=16
T 350 2545 5 10 1 1 0 0 1
pinlabel=Vcc
}
T 300 3700 8 10 0 0 0 0 1
footprint=d16.fp
T 300 3900 8 10 0 0 0 0 1
device=sn74hc595
T 300 3000 8 10 1 1 0 0 1
value=SN74HC595
T 300 3200 8 10 1 1 0 0 1
refdes=U?
T 300 3500 8 10 0 0 0 0 1
part=7-78
B 300 0 1200 2900 3 0 0 0 -1 -1 0 -1 -1 -1 -1 -1
P 1500 2600 1800 2600 1 0 1
{
T 1595 2645 5 10 1 1 0 0 1
pinnumber=15
T 1445 2545 5 10 1 1 0 6 1
pinlabel=Qa
}
P 300 2000 0 2000 1 0 1
{
T 205 2045 5 10 1 1 0 6 1
pinnumber=11
T 350 1945 5 10 1 1 0 0 1
pinlabel=SCK
}
P 300 1700 0 1700 1 0 1
{
T 205 1745 5 10 1 1 0 6 1
pinnumber=14
T 350 1645 5 10 1 1 0 0 1
pinlabel=MOSI
}
P 300 1400 0 1400 1 0 1
{
T 205 1445 5 10 1 1 0 6 1
pinnumber=12
T 350 1345 5 10 1 1 0 0 1
pinlabel=\_CS\_
}
P 300 1100 0 1100 1 0 1
{
T 205 1145 5 10 1 1 0 6 1
pinnumber=13
T 350 1045 5 10 1 1 0 0 1
pinlabel=\_OE\_
}
P 300 800 0 800 1 0 1
{
T 205 845 5 10 1 1 0 6 1
pinnumber=10
T 350 745 5 10 1 1 0 0 1
pinlabel=\_CLR\_
}
P 300 200 0 200 1 0 1
{
T 205 245 5 10 1 1 0 6 1
pinnumber=8
T 350 145 5 10 1 1 0 0 1
pinlabel=Gnd
}
P 1500 2300 1800 2300 1 0 1
{
T 1595 2345 5 10 1 1 0 0 1
pinnumber=1
T 1445 2245 5 10 1 1 0 6 1
pinlabel=Qb
}
P 1500 2000 1800 2000 1 0 1
{
T 1595 2045 5 10 1 1 0 0 1
pinnumber=2
T 1445 1945 5 10 1 1 0 6 1
pinlabel=Qc
}
P 1500 1700 1800 1700 1 0 1
{
T 1595 1745 5 10 1 1 0 0 1
pinnumber=3
T 1445 1645 5 10 1 1 0 6 1
pinlabel=Qd
}
P 1500 1400 1800 1400 1 0 1
{
T 1595 1445 5 10 1 1 0 0 1
pinnumber=4
T 1445 1345 5 10 1 1 0 6 1
pinlabel=Qe
}
P 1500 1100 1800 1100 1 0 1
{
T 1595 1145 5 10 1 1 0 0 1
pinnumber=5
T 1445 1045 5 10 1 1 0 6 1
pinlabel=Qf
}
P 1500 800 1800 800 1 0 1
{
T 1595 845 5 10 1 1 0 0 1
pinnumber=6
T 1445 745 5 10 1 1 0 6 1
pinlabel=Qg
}
P 1500 500 1800 500 1 0 1
{
T 1595 545 5 10 1 1 0 0 1
pinnumber=7
T 1445 445 5 10 1 1 0 6 1
pinlabel=Qh
}
P 1500 200 1800 200 1 0 1
{
T 1595 245 5 10 1 1 0 0 1
pinnumber=9
T 1445 145 5 10 1 1 0 6 1
pinlabel=Qout
}
