v 20210731 2
V 400 350 50 3 0 0 0 -1 -1 0 -1 -1 -1 -1 -1
P 400 300 400 0 1 0 1
{
T 600 600 5 10 0 0 0 0 1
pinnumber=1
T 600 500 5 10 0 0 0 0 1
pinseq=1
T 600 400 5 10 0 0 0 0 1
pinlabel=1
}
T 400 500 9 10 1 0 0 3 1
+5V_analog
T 600 100 8 8 0 0 0 0 1
net=+5V_analog:1
