v 20210731 2
V 200 350 50 3 0 0 0 -1 -1 0 -1 -1 -1 -1 -1
P 200 300 200 0 1 0 1
{
T 400 600 5 10 0 0 0 0 1
pinnumber=1
T 400 500 5 10 0 0 0 0 1
pinseq=1
T 400 400 5 10 0 0 0 0 1
pinlabel=1
}
T 200 450 9 10 1 0 0 3 1
Vcc
T 400 100 8 8 0 0 0 0 1
net=Vcc:1
